{
  "secret": "TESTING123",
  "server": "localhost:2330",
  "caTrustFile": "/tmp/foo-cluster.d/ca/root.cert",
  "debug": "trace",
  "auth": {
    "mechanism": "client-key",
    "file": "/tmp/foo-cluster.d/admin.key"
  }
}
